…
8. (3 points) Make a new object that limits the data to only include attacks attributed to Great White Sharks. This is trickier than it sounds, you should end up with 494 observations. Look online and adapt code involving `str_detect`. Which country has the highest number of Great White Shark attacks?
USA has the greatest number of White Shark attacks.

```r
global_sharks %>% 
  filter(str_detect(species, "White")) %>% 
  count(country) %>%
  arrange(desc(n))
```

```
## # A tibble: 36 × 2
##    country          n
##    <chr>        <int>
##  1 USA            151
##  2 AUSTRALIA      135
##  3 SOUTH AFRICA   124
##  4 NEW ZEALAND     17
##  5 ITALY           16
##  6 CROATIA          9
##  7 GREECE           4
##  8 CHILE            3
##  9 BAHAMAS          2
## 10 CANADA           2
## # ℹ 26 more rows
```
…
