…
```
## [1] "birds"         "lake fishes"   "lizards"       "mammals"      
## [5] "marine fishes" "river fishes"  "snakes"        "tortoises"    
## [9] "turtles"
```

**4. What taxa are represented in the `homerange` data frame? Make a new data frame `taxa` that is restricted to taxon, common name, class, order, family, genus, species.**  

```r
taxa <- select(homerange, taxon, common.name, class, order, family, genus, species)
taxa
```

```
## # A tibble: 569 × 7
##    taxon         common.name             class        order family genus species
##    <fct>         <chr>                   <chr>        <fct> <chr>  <chr> <chr>  
##  1 lake fishes   american eel            actinoptery… lake… angui… angu… rostra…
##  2 river fishes  blacktail redhorse      actinoptery… rive… catos… moxo… poecil…
##  3 river fishes  central stoneroller     actinoptery… rive… cypri… camp… anomal…
##  4 river fishes  rosyside dace           actinoptery… rive… cypri… clin… fundul…
##  5 river fishes  longnose dace           actinoptery… rive… cypri… rhin… catara…
##  6 river fishes  muskellunge             actinoptery… rive… esoci… esox  masqui…
##  7 marine fishes pollack                 actinoptery… mari… gadid… poll… pollac…
##  8 marine fishes saithe                  actinoptery… mari… gadid… poll… virens 
##  9 marine fishes lined surgeonfish       actinoptery… mari… acant… acan… lineat…
## 10 marine fishes orangespine unicornfish actinoptery… mari… acant… naso  litura…
## # ℹ 559 more rows
```
…
**6. The species in `homerange` are also classified into trophic guilds. How many species are represented in each trophic guild.**
569 species.

```r
trophic_species <- select(homerange, trophic.guild, species)
trophic_species
```

```
## # A tibble: 569 × 2
##    trophic.guild species    
##    <chr>         <chr>      
##  1 carnivore     rostrata   
##  2 carnivore     poecilura  
##  3 carnivore     anomalum   
##  4 carnivore     funduloides
##  5 carnivore     cataractae 
##  6 carnivore     masquinongy
##  7 carnivore     pollachius 
##  8 carnivore     virens     
##  9 herbivore     lineatus   
## 10 herbivore     lituratus  
## # ℹ 559 more rows
```

**7. Make two new data frames, one which is restricted to carnivores and another that is restricted to herbivores.**  
342 carnivores and 227 herbivores.

```r
homerange_carnivores <- filter(homerange, trophic.guild =="carnivore")
homerange_carnivores
```

```
## # A tibble: 342 × 24
##    taxon        common.name class order family genus species primarymethod N    
##    <fct>        <chr>       <chr> <fct> <chr>  <chr> <chr>   <chr>         <chr>
##  1 lake fishes  american e… acti… lake… angui… angu… rostra… telemetry     16   
##  2 river fishes blacktail … acti… rive… catos… moxo… poecil… mark-recaptu… <NA> 
##  3 river fishes central st… acti… rive… cypri… camp… anomal… mark-recaptu… 20   
##  4 river fishes rosyside d… acti… rive… cypri… clin… fundul… mark-recaptu… 26   
##  5 river fishes longnose d… acti… rive… cypri… rhin… catara… mark-recaptu… 17   
##  6 river fishes muskellunge acti… rive… esoci… esox  masqui… telemetry     5    
##  7 marine fish… pollack     acti… mari… gadid… poll… pollac… telemetry     2    
##  8 marine fish… saithe      acti… mari… gadid… poll… virens  telemetry     2    
##  9 marine fish… giant trev… acti… mari… caran… cara… ignobi… telemetry     4    
## 10 lake fishes  rock bass   acti… lake… centr… ambl… rupest… mark-recaptu… 16   
## # ℹ 332 more rows
## # ℹ 15 more variables: mean.mass.g <dbl>, log10.mass <dbl>,
## #   alternative.mass.reference <chr>, mean.hra.m2 <dbl>, log10.hra <dbl>,
## #   hra.reference <chr>, realm <chr>, thermoregulation <chr>, locomotion <chr>,
## #   trophic.guild <chr>, dimension <dbl>, preymass <dbl>, log10.preymass <dbl>,
## #   PPMR <dbl>, prey.size.reference <chr>
```

```r
homerange_herbivores <- filter(homerange, trophic.guild =="herbivore")
homerange_herbivores
```

```
## # A tibble: 227 × 24
##    taxon        common.name class order family genus species primarymethod N    
##    <fct>        <chr>       <chr> <fct> <chr>  <chr> <chr>   <chr>         <chr>
##  1 marine fish… lined surg… acti… mari… acant… acan… lineat… direct obser… <NA> 
##  2 marine fish… orangespin… acti… mari… acant… naso  litura… telemetry     8    
##  3 marine fish… bluespine … acti… mari… acant… naso  unicor… telemetry     7    
##  4 marine fish… redlip ble… acti… mari… blenn… ophi… atlant… direct obser… 20   
##  5 marine fish… bermuda ch… acti… mari… kypho… kyph… sectat… telemetry     11   
##  6 marine fish… cherubfish  acti… mari… pomac… cent… argi    direct obser… <NA> 
##  7 marine fish… damselfish  acti… mari… pomac… chro… chromis direct obser… <NA> 
##  8 marine fish… twinspot d… acti… mari… pomac… chry… biocel… direct obser… 18   
##  9 marine fish… wards dams… acti… mari… pomac… poma… wardi   direct obser… <NA> 
## 10 marine fish… australian… acti… mari… pomac… steg… apical… direct obser… <NA> 
## # ℹ 217 more rows
## # ℹ 15 more variables: mean.mass.g <dbl>, log10.mass <dbl>,
## #   alternative.mass.reference <chr>, mean.hra.m2 <dbl>, log10.hra <dbl>,
## #   hra.reference <chr>, realm <chr>, thermoregulation <chr>, locomotion <chr>,
## #   trophic.guild <chr>, dimension <dbl>, preymass <dbl>, log10.preymass <dbl>,
## #   PPMR <dbl>, prey.size.reference <chr>
```
…
**10. As measured by the data, which bird species has the largest homerange? Show all of your work, please. Look this species up online and tell me about it!**.  
The bird with the largest homerange is the Caracara cheriway. The common name is the Caracara. It is a medium-sized bird, between the size of a crow and a goose. They are black and white with yellow-orange legs and skin. 

```r
birds <- homerange %>% 
  select(taxon, family, genus, species, common.name, mean.mass.g, mean.hra.m2, log10.mass) %>% 
  filter(taxon=="birds") %>% 
  arrange(mean.hra.m2)
birds
```

```
## # A tibble: 140 × 8
##    taxon family     genus species common.name mean.mass.g mean.hra.m2 log10.mass
##    <fct> <chr>      <chr> <chr>   <chr>             <dbl>       <dbl>      <dbl>
##  1 birds emberizid… pass… cyanea  indigo bun…        14.3       1052.      1.16 
##  2 birds troglodyt… thry… ludovi… Carolina w…        18.5       1214.      1.27 
##  3 birds incertae   icte… virens  yellow-bre…        27         1335.      1.43 
##  4 birds vireonidae vireo griseus white-eyed…        11.4       1335.      1.06 
##  5 birds parulidae  seto… petech… American y…         9.5       1700.      0.978
##  6 birds tyrannidae empi… minimus least flyc…         9.9       1781.      0.996
##  7 birds parulidae  seto… rutici… American r…         9         1942.      0.954
##  8 birds columbidae scar… inca    inca dove          47.7       2590.      1.68 
##  9 birds sylviidae  sylv… undata  Dartford w…         8.8       2800       0.944
## 10 birds sylvidae   cham… fascia… wrentit            14.8       3237.      1.17 
## # ℹ 130 more rows
```
…
